\contentsline {section}{\numberline {1}Introduction}{2}
\contentsline {section}{\numberline {2}Preliminaries}{3}
\contentsline {subsection}{\numberline {2.1}Matching tree}{3}
\contentsline {section}{\numberline {3}Using independence complex to determine properties of graphs}{5}
\contentsline {section}{\numberline {4}Bibliography}{10}
