\relax 
\citation{b}
\citation{b}
\citation{b}
\@writefile{toc}{\contentsline {section}{\numberline {1}Introduction}{1}}
\@writefile{toc}{\contentsline {section}{\numberline {2}Preliminaries}{1}}
\citation{b}
\citation{b}
\citation{a}
\newlabel{patchwork}{{2.2}{2}}
\@writefile{toc}{\contentsline {subsection}{\numberline {2.1}Matching tree}{2}}
\newlabel{match}{{2.1}{2}}
\citation{a}
\citation{a}
\@writefile{lof}{\contentsline {figure}{\numberline {2.1}{\ignorespaces Example of a matching tree.\cite  {a}}}{3}}
\newlabel{fig1}{{2.1}{3}}
\@writefile{toc}{\contentsline {section}{\numberline {3}Using independence complex to determine properties of graphs}{3}}
\newlabel{theorem}{{3}{3}}
\newlabel{J(G)}{{3.1}{3}}
\@writefile{lof}{\contentsline {figure}{\numberline {3.2}{\ignorespaces Example of $T(G)$.}}{6}}
\newlabel{fig14}{{3.2}{6}}
\@writefile{lof}{\contentsline {figure}{\numberline {3.1}{\ignorespaces Section of a matching tree of $J(G)$.}}{6}}
\newlabel{fig12}{{3.1}{6}}
\@writefile{lof}{\contentsline {figure}{\numberline {3.3}{\ignorespaces Section of a matching tree of $T(G)$ for some $G$.}}{7}}
\newlabel{fig15}{{3.3}{7}}
\bibcite{a}{1}
\bibcite{b}{2}
\bibcite{c}{3}
\bibcite{e}{4}
\@writefile{toc}{\contentsline {section}{\numberline {4}Bibliography}{8}}
